{
  "name": "simp-simp",
  "version": "4.16.4",
  "author": "SIMP Team",
  "summary": "default profiles for core SIMP installations",
  "license": "Apache-2.0",
  "source": "https://github.com/simp/pupmod-simp-simp",
  "project_page": "https://github.com/simp/pupmod-simp-simp",
  "issues_url": "https://simp-project.atlassian.net",
  "tags": [
    "compliance",
    "stig",
    "nist_800-53",
    "simp",
    "profiles"
  ],
  "dependencies": [
    {
      "name": "puppet/kmod",
      "version_requirement": ">= 2.1.0 < 4.0.0"
    },
    {
      "name": "herculesteam/augeasproviders_sysctl",
      "version_requirement": ">= 2.2.0 < 3.0.0"
    },
    {
      "name": "puppet/chrony",
      "version_requirement": ">= 1.0.0 < 3.0.0"
    },
    {
      "name": "puppetlabs/concat",
      "version_requirement": ">= 6.4.0 < 8.0.0"
    },
    {
      "name": "puppetlabs/puppetdb",
      "version_requirement": ">= 7.1.0 < 8.0.0"
    },
    {
      "name": "puppetlabs/stdlib",
      "version_requirement": ">= 6.6.0 < 9.0.0"
    },
    {
      "name": "saz/timezone",
      "version_requirement": ">= 5.1.1 < 7.0.0"
    },
    {
      "name": "simp/aide",
      "version_requirement": ">= 6.0.0 < 7.0.0"
    },
    {
      "name": "simp/at",
      "version_requirement": ">= 0.0.5 < 1.0.0"
    },
    {
      "name": "simp/auditd",
      "version_requirement": ">= 8.5.0 < 9.0.0"
    },
    {
      "name": "simp/chkrootkit",
      "version_requirement": ">= 0.1.0 < 1.0.0"
    },
    {
      "name": "simp/clamav",
      "version_requirement": ">= 6.0.0 < 7.0.0"
    },
    {
      "name": "simp/cron",
      "version_requirement": ">= 0.1.0 < 1.0.0"
    },
    {
      "name": "simp/deferred_resources",
      "version_requirement": ">= 0.1.0 < 1.0.0"
    },
    {
      "name": "simp/dhcp",
      "version_requirement": ">= 6.0.0 < 7.0.0"
    },
    {
      "name": "simp/fips",
      "version_requirement": ">= 0.2.0 < 1.0.0"
    },
    {
      "name": "simp/incron",
      "version_requirement": ">= 0.4.0 < 1.0.0"
    },
    {
      "name": "simp/iptables",
      "version_requirement": ">= 6.0.0 < 7.0.0"
    },
    {
      "name": "simp/issue",
      "version_requirement": ">= 0.0.3 < 1.0.0"
    },
    {
      "name": "simp/ntpd",
      "version_requirement": ">= 6.0.0 < 7.0.0"
    },
    {
      "name": "simp/pam",
      "version_requirement": ">= 6.0.0 < 7.0.0"
    },
    {
      "name": "simp/polkit",
      "version_requirement": ">= 6.1.0 < 7.0.0"
    },
    {
      "name": "simp/postfix",
      "version_requirement": ">= 5.0.0 < 6.0.0"
    },
    {
      "name": "simp/pupmod",
      "version_requirement": ">= 8.0.0 < 9.0.0"
    },
    {
      "name": "simp/resolv",
      "version_requirement": ">= 0.1.1 < 1.0.0"
    },
    {
      "name": "simp/rkhunter",
      "version_requirement": ">= 0.0.1 < 1.0.0"
    },
    {
      "name": "simp/rsync",
      "version_requirement": ">= 6.0.0 < 7.0.0"
    },
    {
      "name": "simp/selinux",
      "version_requirement": ">= 2.6.1 < 3.0.0"
    },
    {
      "name": "simp/simp_apache",
      "version_requirement": ">= 7.0.0 < 8.0.0"
    },
    {
      "name": "simp/simp_openldap",
      "version_requirement": ">= 6.0.0 < 7.0.0"
    },
    {
      "name": "simp/simp_rsyslog",
      "version_requirement": ">= 0.3.0 < 1.0.0"
    },
    {
      "name": "simp/simplib",
      "version_requirement": ">= 4.5.0 < 5.0.0"
    },
    {
      "name": "simp/ssh",
      "version_requirement": ">= 6.5.1 < 7.0.0"
    },
    {
      "name": "simp/sssd",
      "version_requirement": ">= 7.0.0 < 8.0.0"
    },
    {
      "name": "simp/sudo",
      "version_requirement": ">= 5.1.0 < 6.0.0"
    },
    {
      "name": "simp/sudosh",
      "version_requirement": ">= 6.1.0 < 7.0.0"
    },
    {
      "name": "simp/svckill",
      "version_requirement": ">= 3.6.1 < 4.0.0"
    },
    {
      "name": "simp/swap",
      "version_requirement": ">= 0.1.2 < 1.0.0"
    },
    {
      "name": "simp/tftpboot",
      "version_requirement": ">= 6.3.0 < 7.0.0"
    },
    {
      "name": "simp/tlog",
      "version_requirement": ">= 0.1.0 < 1.0.0"
    },
    {
      "name": "simp/tuned",
      "version_requirement": ">= 0.1.0 < 1.0.0"
    },
    {
      "name": "simp/useradd",
      "version_requirement": ">= 0.2.2 < 1.0.0"
    },
    {
      "name": "trlinkin/nsswitch",
      "version_requirement": ">= 2.0.0 < 3.0.0"
    }
  ],
  "requirements": [
    {
      "name": "puppet",
      "version_requirement": ">= 6.22.1 < 8.0.0"
    }
  ],
  "operatingsystem_support": [
    {
      "operatingsystem": "CentOS",
      "operatingsystemrelease": [
        "7",
        "8"
      ]
    },
    {
      "operatingsystem": "RedHat",
      "operatingsystemrelease": [
        "7",
        "8"
      ]
    },
    {
      "operatingsystem": "OracleLinux",
      "operatingsystemrelease": [
        "7",
        "8"
      ]
    },
    {
      "operatingsystem": "Windows",
      "operatingsystemrelease": [
        "2008",
        "2008 R2",
        "2012",
        "2012 R2",
        "2016",
        "2019",
        "7",
        "8.1",
        "10"
      ]
    }
  ]
}
